           step             u_x             F_x             u_y             F_y
              1   0.333333E-002   0.662920E+000   0.000000E+000   0.286197E-014
              2   0.666667E-002   0.381030E-002   0.000000E+000   0.334877E-014
              3   0.100000E-001   0.131697E-002   0.000000E+000   0.204911E-014
              4   0.133333E-001   0.651000E-003   0.000000E+000  -0.195894E-013
              5   0.166667E-001   0.811036E-003   0.000000E+000   0.111952E-013
              6   0.200000E-001   0.510696E-003   0.000000E+000  -0.251442E-013
              7   0.233333E-001   0.392385E-003   0.000000E+000   0.125852E-013
              8   0.266667E-001   0.340781E-003   0.000000E+000   0.787348E-014
              9   0.300000E-001   0.315283E-003   0.000000E+000   0.552982E-013
             10   0.333333E-001   0.299108E-003   0.000000E+000   0.475453E-013
