# vtk DataFile Version 3.0
Solution
ASCII
DATASET UNSTRUCTURED_GRID
POINTS        5 float
   0.0000000000000000        0.0000000000000000        0.0000000000000000     
   0.0000000000000000        1.0000000000000000        0.0000000000000000     
   1.0000000000000000        1.0000000000000000        0.0000000000000000     
   1.0000000000000000        0.0000000000000000        0.0000000000000000     
   0.0000000000000000       -1.0000000000000000        0.0000000000000000     
CELLS        2       10
                    4                    0                    1                    2                    3
                    4                    0                    1                    2                    4
CELL_TYPES        2
                    9
                    9
CELL_DATA	2
SCALARS MAT_ID int 1
LOOKUP_TABLE default
 42
 42
POINT_DATA        5
VECTORS Displacement float
             0.000000000000000             1.000000000000000             0.000000000000000
             0.000000000000000             1.000000000000000             0.000000000000000
             0.000000000000000             1.000000000000000             0.000000000000000
             0.000000000000000             1.000000000000000             0.000000000000000
             0.000000000000000             1.000000000000000             0.000000000000000
TENSORS Stress float
   1.0000000000000000        3.0000000000000000        0.0000000000000000     
   3.0000000000000000        2.0000000000000000        0.0000000000000000     
   0.0000000000000000        0.0000000000000000        0.0000000000000000     

   1.0000000000000000        3.0000000000000000        0.0000000000000000     
   3.0000000000000000        2.0000000000000000        0.0000000000000000     
   0.0000000000000000        0.0000000000000000        0.0000000000000000     

   1.0000000000000000        3.0000000000000000        0.0000000000000000     
   3.0000000000000000        2.0000000000000000        0.0000000000000000     
   0.0000000000000000        0.0000000000000000        0.0000000000000000     

   1.0000000000000000        3.0000000000000000        0.0000000000000000     
   3.0000000000000000        2.0000000000000000        0.0000000000000000     
   0.0000000000000000        0.0000000000000000        0.0000000000000000     

   1.0000000000000000        3.0000000000000000        0.0000000000000000     
   3.0000000000000000        2.0000000000000000        0.0000000000000000     
   0.0000000000000000        0.0000000000000000        0.0000000000000000     

