           step             u_x             F_x             u_y             F_y
              1   0.333333E-002   0.664342E+000   0.000000E+000   0.238524E-017
              2   0.666667E-002   0.187280E-001   0.000000E+000   0.135525E-018
              3   0.100000E-001   0.691871E-002   0.000000E+000   0.609864E-019
              4   0.133333E-001   0.336586E-002   0.000000E+000   0.220229E-019
              5   0.166667E-001   0.181577E-002   0.000000E+000   0.101644E-019
              6   0.200000E-001   0.108902E-002   0.000000E+000  -0.223193E-018
              7   0.233333E-001   0.679828E-003   0.000000E+000   0.762330E-020
              8   0.266667E-001   0.708318E-003   0.000000E+000   0.132243E-018
              9   0.300000E-001   0.456544E-003   0.000000E+000   0.103709E-018
             10   0.333333E-001   0.303363E-003   0.000000E+000   0.127439E-018
