      Load Step            iter    RES_displ(0)       RES_PF(0)        Elast_en        Fract_en        Total_en       RES_displ          RES_PF     Norm_EN_tot    Norm_RES_tot    Norm_var_RES
              3               1   0.527924E+001   0.714965E-003   0.678503E-004   0.303524E-002   0.310309E-002   0.211488E-002   0.964084E-017   0.100000E+001   0.100000E+001   0.100000E+001
              3               2   0.527924E+001   0.714965E-003   0.140343E-004   0.303647E-002   0.305050E-002   0.524889E-004   0.100329E-016   0.100000E+001   0.994251E-005   0.390665E-003
