           step             u_x             F_x             u_y             F_y
              1   0.333333E-002   0.541603E+000   0.000000E+000  -0.806321E-015
              2   0.666667E-002   0.910801E-002   0.000000E+000   0.347383E-014
              3   0.100000E-001   0.280687E-002   0.000000E+000  -0.452600E-014
              4   0.133333E-001   0.109145E-002   0.000000E+000  -0.773111E-015
              5   0.166667E-001   0.552878E-003   0.000000E+000  -0.311874E-014
              6   0.200000E-001   0.660570E-003   0.000000E+000   0.129027E-014
              7   0.233333E-001   0.372627E-003   0.000000E+000  -0.606718E-014
              8   0.266667E-001   0.229849E-003   0.000000E+000   0.268266E-015
              9   0.300000E-001   0.151616E-003   0.000000E+000  -0.273809E-014
             10   0.333333E-001   0.105203E-003   0.000000E+000  -0.219984E-014
