      Load Step            iter    RES_displ(0)       RES_PF(0)        Elast_en        Fract_en        Total_en       RES_displ          RES_PF     Norm_EN_tot    Norm_RES_tot    Norm_var_RES
              5               1   0.622810E+001   0.291350E-003   0.381054E-004   0.312976E-002   0.316787E-002   0.491771E-003   0.203764E-014   0.100000E+001   0.100000E+001   0.100000E+001
              5               2   0.622810E+001   0.291350E-003   0.169646E-004   0.312990E-002   0.314686E-002   0.374555E-005   0.190761E-014   0.100000E+001   0.601402E-006   0.783588E-004
