      Load Step            iter    RES_displ(0)       RES_PF(0)        Elast_en        Fract_en        Total_en       RES_displ          RES_PF     Norm_EN_tot    Norm_RES_tot    Norm_var_RES
              3               1   0.623133E+001   0.352513E-003   0.252554E-004   0.222353E-002   0.224878E-002   0.525989E-003   0.139452E-006   0.100000E+001   0.100000E+001   0.100000E+001
              3               2   0.623133E+001   0.352513E-003   0.571291E-005   0.222364E-002   0.222935E-002   0.316256E-005   0.930936E-017   0.100000E+001   0.507527E-006   0.479497E-003
