           step             u_x             F_x             u_y             F_y
              1   0.333333E-002   0.663217E+000   0.000000E+000  -0.595032E-014
              2   0.666667E-002   0.343158E-002   0.000000E+000   0.481297E-014
              3   0.100000E-001   0.114259E-002   0.000000E+000   0.186700E-013
              4   0.133333E-001   0.498155E-003   0.000000E+000   0.137789E-013
              5   0.166667E-001   0.620306E-003   0.000000E+000  -0.393244E-014
              6   0.200000E-001   0.312545E-003   0.000000E+000   0.226701E-013
              7   0.233333E-001   0.178066E-003   0.000000E+000  -0.471281E-014
              8   0.266667E-001   0.110718E-003   0.000000E+000   0.134556E-013
              9   0.300000E-001   0.733980E-004   0.000000E+000  -0.195382E-013
             10   0.333333E-001   0.510996E-004   0.000000E+000   0.102661E-013
